\relax 
\providecommand\BKM@entry[2]{}
\providecommand\zref@newlabel[2]{}
\catcode`"\active
\providecommand\HyperFirstAtBeginDocument{\AtBeginDocument}
\HyperFirstAtBeginDocument{\ifx\hyper@anchor\@undefined
\global\let\oldcontentsline\contentsline
\gdef\contentsline#1#2#3#4{\oldcontentsline{#1}{#2}{#3}}
\global\let\oldnewlabel\newlabel
\gdef\newlabel#1#2{\newlabelxx{#1}#2}
\gdef\newlabelxx#1#2#3#4#5#6{\oldnewlabel{#1}{{#2}{#3}}}
\AtEndDocument{\ifx\hyper@anchor\@undefined
\let\contentsline\oldcontentsline
\let\newlabel\oldnewlabel
\fi}
\fi}
\global\let\hyper@last\relax 
\gdef\HyperFirstAtBeginDocument#1{#1}
\providecommand\HyField@AuxAddToFields[1]{}
\select@language{portuguese}
\@writefile{toc}{\select@language{portuguese}}
\@writefile{lof}{\select@language{portuguese}}
\@writefile{lot}{\select@language{portuguese}}
\BKM@entry{id=1,open,dest={446F632D5374617274},srcline={22}}{5C3331356E64696365}
\@writefile{toc}{\contentsline {chapter}{\IeC {\'I}ndice}{i}{Doc-Start}}
\BKM@entry{id=2,open,dest={636861707465722E31},srcline={34}}{3120456E7175616472616D656E746F20646F2074726162616C686F}
\@writefile{toc}{\contentsline {chapter}{\numberline {1}Enquadramento do trabalho}{1}{chapter.1}}
\@writefile{lof}{\addvspace {10\p@ }}
\@writefile{lot}{\addvspace {10\p@ }}
\BKM@entry{id=3,open,dest={636861707465722E32},srcline={44}}{32205265736F6C755C3334375C3334336F20646F2074726162616C686F}
\BKM@entry{id=4,open,dest={73656374696F6E2E322E31},srcline={46}}{322E3120536567756E646F2074726162616C686F2070725C3334317469636F}
\BKM@entry{id=5,open,dest={73656374696F6E2E322E32},srcline={54}}{322E3220546572636569726F2074726162616C686F2070725C3334317469636F}
\BKM@entry{id=6,open,dest={73756273656374696F6E2E322E322E31},srcline={56}}{322E322E31204465736372695C3334375C3334336F20646F2074726162616C686F}
\@writefile{toc}{\contentsline {chapter}{\numberline {2}Resolu\IeC {\c c}\IeC {\~a}o do trabalho}{3}{chapter.2}}
\@writefile{lof}{\addvspace {10\p@ }}
\@writefile{lot}{\addvspace {10\p@ }}
\@writefile{toc}{\contentsline {section}{\numberline {2.1}Segundo trabalho pr\IeC {\'a}tico}{3}{section.2.1}}
\@writefile{toc}{\contentsline {section}{\numberline {2.2}Terceiro trabalho pr\IeC {\'a}tico}{3}{section.2.2}}
\@writefile{toc}{\contentsline {subsection}{\numberline {2.2.1}Descri\IeC {\c c}\IeC {\~a}o do trabalho}{3}{subsection.2.2.1}}
\BKM@entry{id=7,open,dest={73656374696F6E2E322E33},srcline={74}}{322E332045737475646F20646120736F6C755C3334375C3334336F}
\BKM@entry{id=8,open,dest={73656374696F6E2E322E34},srcline={82}}{322E3420506F73735C33353576656973204D656C686F72696173}
\@writefile{lof}{\contentsline {figure}{\numberline {2.1}{\ignorespaces Arquitetura final.\relax }}{4}{figure.caption.2}}
\providecommand*\caption@xref[2]{\@setref\relax\@undefined{#1}}
\newlabel{fig:finalArch}{{2.1}{4}{Arquitetura final.\relax \relax }{figure.caption.2}{}}
\@writefile{toc}{\contentsline {section}{\numberline {2.3}Estudo da solu\IeC {\c c}\IeC {\~a}o}{4}{section.2.3}}
\@writefile{toc}{\contentsline {section}{\numberline {2.4}Poss\IeC {\'\i }veis Melhorias}{4}{section.2.4}}
\@writefile{lof}{\contentsline {figure}{\numberline {2.2}{\ignorespaces Separa\IeC {\c c}\IeC {\~a}o entre os pedidos efetuados e o seu despacho.\relax }}{5}{figure.caption.3}}
\newlabel{fig:BalanceamentoDeCarga}{{2.2}{5}{Separação entre os pedidos efetuados e o seu despacho.\relax \relax }{figure.caption.3}{}}
\BKM@entry{id=9,open,dest={73656374696F6E2E322E35},srcline={118}}{322E352056616E746167656E732056532044657376616E746167656E73}
\BKM@entry{id=10,open,dest={73756273656374696F6E2E322E352E31},srcline={120}}{322E352E3120436C7573746572204869627269646F20736F6272652049616153}
\@writefile{lof}{\contentsline {figure}{\numberline {2.3}{\ignorespaces Pedido e resposta, de forma otimizada.\relax }}{6}{figure.caption.4}}
\newlabel{fig:BalanceamentoDeCarga2}{{2.3}{6}{Pedido e resposta, de forma otimizada.\relax \relax }{figure.caption.4}{}}
\@writefile{toc}{\contentsline {section}{\numberline {2.5}Vantagens VS Desvantagens}{6}{section.2.5}}
\@writefile{toc}{\contentsline {subsection}{\numberline {2.5.1}\emph  {Cluster} Hibrido sobre IaaS}{6}{subsection.2.5.1}}
\BKM@entry{id=11,open,dest={636861707465722A2E35},srcline={130}}{4269626C696F677261666961}
\bibcite{wikipediaLoadBalance}{1}
\@writefile{toc}{\contentsline {chapter}{Bibliografia}{7}{chapter*.5}}
