\select@language {portuguese}
\contentsline {chapter}{\IeC {\'I}ndice}{i}{Doc-Start}
\contentsline {chapter}{\numberline {1}Enquadramento do trabalho}{1}{chapter.1}
\contentsline {chapter}{\numberline {2}O que \IeC {\'e} o OSGi}{3}{chapter.2}
\contentsline {section}{\numberline {2.1}Descri\IeC {\c c}\IeC {\~a}o}{3}{section.2.1}
\contentsline {section}{\numberline {2.2}O que \IeC {\'e} um m\IeC {\'o}dulo?}{5}{section.2.2}
\contentsline {section}{\numberline {2.3}Ciclo de vida de um m\IeC {\'o}dulo}{5}{section.2.3}
\contentsline {chapter}{\numberline {3}Resolu\IeC {\c c}\IeC {\~a}o do trabalho}{7}{chapter.3}
\contentsline {chapter}{Bibliografia}{9}{chapter*.6}
