\relax 
\providecommand\BKM@entry[2]{}
\providecommand\zref@newlabel[2]{}
\catcode`"\active
\providecommand\HyperFirstAtBeginDocument{\AtBeginDocument}
\HyperFirstAtBeginDocument{\ifx\hyper@anchor\@undefined
\global\let\oldcontentsline\contentsline
\gdef\contentsline#1#2#3#4{\oldcontentsline{#1}{#2}{#3}}
\global\let\oldnewlabel\newlabel
\gdef\newlabel#1#2{\newlabelxx{#1}#2}
\gdef\newlabelxx#1#2#3#4#5#6{\oldnewlabel{#1}{{#2}{#3}}}
\AtEndDocument{\ifx\hyper@anchor\@undefined
\let\contentsline\oldcontentsline
\let\newlabel\oldnewlabel
\fi}
\fi}
\global\let\hyper@last\relax 
\gdef\HyperFirstAtBeginDocument#1{#1}
\providecommand\HyField@AuxAddToFields[1]{}
\select@language{portuguese}
\@writefile{toc}{\select@language{portuguese}}
\@writefile{lof}{\select@language{portuguese}}
\@writefile{lot}{\select@language{portuguese}}
\BKM@entry{id=1,open,dest={446F632D5374617274},srcline={22}}{5C3331356E64696365}
\@writefile{toc}{\contentsline {chapter}{\IeC {\'I}ndice}{i}{Doc-Start}}
\BKM@entry{id=2,open,dest={636861707465722E31},srcline={34}}{3120456E7175616472616D656E746F20646F2074726162616C686F}
\@writefile{toc}{\contentsline {chapter}{\numberline {1}Enquadramento do trabalho}{1}{chapter.1}}
\@writefile{lof}{\addvspace {10\p@ }}
\@writefile{lot}{\addvspace {10\p@ }}
\BKM@entry{id=3,open,dest={636861707465722E32},srcline={38}}{32204F20717565205C333531206F204F534769}
\BKM@entry{id=4,open,dest={73656374696F6E2E322E31},srcline={40}}{322E31204465736372695C3334375C3334336F}
\citation{WhatIsOSGi}
\citation{WhatIsOSGi}
\@writefile{toc}{\contentsline {chapter}{\numberline {2}O que \IeC {\'e} o OSGi}{3}{chapter.2}}
\@writefile{lof}{\addvspace {10\p@ }}
\@writefile{lot}{\addvspace {10\p@ }}
\@writefile{toc}{\contentsline {section}{\numberline {2.1}Descri\IeC {\c c}\IeC {\~a}o}{3}{section.2.1}}
\@writefile{lof}{\contentsline {figure}{\numberline {2.1}{\ignorespaces Camadas OSGi.\relax }}{3}{figure.caption.2}}
\providecommand*\caption@xref[2]{\@setref\relax\@undefined{#1}}
\newlabel{fig:osgi_framework}{{2.1}{3}{Camadas OSGi.\relax \relax }{figure.caption.2}{}}
\BKM@entry{id=5,open,dest={73656374696F6E2E322E32},srcline={80}}{322E32204F20717565205C33353120756D206D5C33363364756C6F3F}
\@writefile{lof}{\contentsline {figure}{\numberline {2.2}{\ignorespaces Sistema de m\IeC {\'o}dulos OSGi\relax }}{4}{figure.caption.3}}
\newlabel{fig:osgi-system-layering}{{2.2}{4}{Sistema de módulos OSGi\relax \relax }{figure.caption.3}{}}
\BKM@entry{id=6,open,dest={73656374696F6E2E322E33},srcline={94}}{322E33204369636C6F206465207669646120646520756D206D5C33363364756C6F}
\@writefile{toc}{\contentsline {section}{\numberline {2.2}O que \IeC {\'e} um m\IeC {\'o}dulo?}{5}{section.2.2}}
\@writefile{lof}{\contentsline {figure}{\numberline {2.3}{\ignorespaces M\IeC {\'o}dulo OSGi.\relax }}{5}{figure.caption.4}}
\newlabel{fig:osgiModule}{{2.3}{5}{Módulo OSGi.\relax \relax }{figure.caption.4}{}}
\@writefile{toc}{\contentsline {section}{\numberline {2.3}Ciclo de vida de um m\IeC {\'o}dulo}{5}{section.2.3}}
\@writefile{lof}{\contentsline {figure}{\numberline {2.4}{\ignorespaces Ciclo de vida dos m\IeC {\'o}dulos OSGi.\relax }}{5}{figure.caption.5}}
\newlabel{fig:lifecycle}{{2.4}{5}{Ciclo de vida dos módulos OSGi.\relax \relax }{figure.caption.5}{}}
\BKM@entry{id=7,open,dest={636861707465722E33},srcline={110}}{33205265736F6C755C3334375C3334336F20646F2074726162616C686F}
\@writefile{toc}{\contentsline {chapter}{\numberline {3}Resolu\IeC {\c c}\IeC {\~a}o do trabalho}{7}{chapter.3}}
\@writefile{lof}{\addvspace {10\p@ }}
\@writefile{lot}{\addvspace {10\p@ }}
\BKM@entry{id=8,open,dest={636861707465722A2E36},srcline={119}}{4269626C696F677261666961}
\bibcite{WhatIsOSGi}{1}
\bibcite{OSGiLifecycles}{2}
\@writefile{toc}{\contentsline {chapter}{Bibliografia}{9}{chapter*.6}}
