\select@language {portuguese}
\contentsline {chapter}{\IeC {\'I}ndice}{i}{Doc-Start}
\contentsline {chapter}{Lista de Figuras}{1}{chapter*.1}
\contentsline {chapter}{Lista de Tabelas}{3}{chapter*.2}
\contentsline {chapter}{\numberline {1}Quest\IeC {\~o}es e Respostas}{5}{chapter.1}
\contentsline {chapter}{Bibliografia}{7}{chapter*.4}
