\relax 
\providecommand\BKM@entry[2]{}
\providecommand\zref@newlabel[2]{}
\catcode`"\active
\providecommand\HyperFirstAtBeginDocument{\AtBeginDocument}
\HyperFirstAtBeginDocument{\ifx\hyper@anchor\@undefined
\global\let\oldcontentsline\contentsline
\gdef\contentsline#1#2#3#4{\oldcontentsline{#1}{#2}{#3}}
\global\let\oldnewlabel\newlabel
\gdef\newlabel#1#2{\newlabelxx{#1}#2}
\gdef\newlabelxx#1#2#3#4#5#6{\oldnewlabel{#1}{{#2}{#3}}}
\AtEndDocument{\ifx\hyper@anchor\@undefined
\let\contentsline\oldcontentsline
\let\newlabel\oldnewlabel
\fi}
\fi}
\global\let\hyper@last\relax 
\gdef\HyperFirstAtBeginDocument#1{#1}
\providecommand\HyField@AuxAddToFields[1]{}
\select@language{portuguese}
\@writefile{toc}{\select@language{portuguese}}
\@writefile{lof}{\select@language{portuguese}}
\@writefile{lot}{\select@language{portuguese}}
\zref@newlabel{mdf@pagelabel-1}{\default{}\page{1}\abspage{3}\mdf@pagevalue{1}}
\zref@newlabel{mdf@pagelabel-2}{\default{}\page{1}\abspage{3}\mdf@pagevalue{1}}
\zref@newlabel{mdf@pagelabel-3}{\default{}\page{2}\abspage{4}\mdf@pagevalue{2}}
\zref@newlabel{mdf@pagelabel-4}{\default{}\page{2}\abspage{4}\mdf@pagevalue{2}}
\zref@newlabel{mdf@pagelabel-5}{\default{}\page{2}\abspage{4}\mdf@pagevalue{2}}
\zref@newlabel{mdf@pagelabel-6}{\default{}\page{3}\abspage{5}\mdf@pagevalue{3}}
\zref@newlabel{mdf@pagelabel-7}{\default{}\page{3}\abspage{5}\mdf@pagevalue{3}}
\zref@newlabel{mdf@pagelabel-8}{\default{}\page{4}\abspage{6}\mdf@pagevalue{4}}
\zref@newlabel{mdf@pagelabel-9}{\default{}\page{4}\abspage{6}\mdf@pagevalue{4}}
\zref@newlabel{mdf@pagelabel-10}{\default{}\page{4}\abspage{6}\mdf@pagevalue{4}}
\zref@newlabel{mdf@pagelabel-11}{\default{}\page{5}\abspage{7}\mdf@pagevalue{5}}
\zref@newlabel{mdf@pagelabel-12}{\default{}\page{5}\abspage{7}\mdf@pagevalue{5}}
\zref@newlabel{mdf@pagelabel-13}{\default{}\page{5}\abspage{7}\mdf@pagevalue{5}}
\zref@newlabel{mdf@pagelabel-14}{\default{}\page{6}\abspage{8}\mdf@pagevalue{6}}
\BKM@entry{id=1,open,dest={636861707465722A2E32},srcline={229}}{4269626C696F677261666961}
\bibcite{reference_book_1}{1}
\@writefile{toc}{\contentsline {chapter}{Bibliografia}{7}{chapter*.2}}
